{
  "org_name": "My Acme Co",  
  "org_domain_name": "{{ cookiecutter.org_name.lower()|replace(' ', '')|replace('-', '_')|trim() }}.com",
  "vault_domain_name": "vault.{{ cookiecutter.org_domain_name }}",
  "org_project_name": "is-org",
  "org_infrastructure_workspace_name": "{{ cookiecutter.org_project_name }}",
  "gitlab_group": "{{ cookiecutter.org_project_name }}",
  "gitlab_project_slug": "{{ cookiecutter.org_project_name }}"
}
